{
  "extends": "tslint:recommended",
  "rulesDirectory": ["codelyzer"],
  "rules": {
    "align": { "options": ["parameters", "statements"] },
    "array-type": false,
    "arrow-return-shorthand": true,
    "component-class-suffix": false,
    "contextual-lifecycle": true,
    "curly": true,
    "deprecation": true,
    "directive-class-suffix": false,
    "eofline": true,
    "import-blacklist": [true, "rxjs/Rx"],
    "import-spacing": true,
    "indent": { "options": ["spaces"] },
    "interface-name": [true, "never-prefix"],
    "max-classes-per-file": false,
    "max-line-length": [true, 140],
    "member-access": true,
    "member-ordering": false,
    "no-conflicting-lifecycle": false,
    "no-console": [true, "debug", "info", "time", "timeEnd", "trace"],
    "no-empty": false,
    "no-host-metadata-property": true,
    "no-inferrable-types": [true, "ignore-params"],
    "no-input-rename": true,
    "no-inputs-metadata-property": true,
    "no-non-null-assertion": true,
    "no-output-native": true,
    "no-output-on-prefix": true,
    "no-output-rename": true,
    "no-outputs-metadata-property": true,
    "no-redundant-jsdoc": false,
    "no-string-literal": false,
    "no-switch-case-fall-through": true,
    "no-var-requires": false,
    "object-literal-key-quotes": [true, "as-needed"],
    "quotemark": [true, "single", "avoid-escape"],
    "semicolon": [true, "never"],
    "space-before-function-paren": {
      "options": {
        "anonymous": "never",
        "asyncArrow": "always",
        "constructor": "never",
        "method": "never",
        "named": "never"
      }
    },
    "template-banana-in-box": true,
    "template-no-negated-async": true,
    "typedef": [true, "call-signature"],
    "typedef-whitespace": {
      "options": [
        {
          "call-signature": "nospace",
          "index-signature": "nospace",
          "parameter": "nospace",
          "property-declaration": "nospace",
          "variable-declaration": "nospace"
        },
        {
          "call-signature": "onespace",
          "index-signature": "onespace",
          "parameter": "onespace",
          "property-declaration": "onespace",
          "variable-declaration": "onespace"
        }
      ]
    },
    "use-lifecycle-interface": true,
    "use-pipe-transform-interface": true,
    "variable-name": { "options": ["ban-keywords", "check-format", "allow-pascal-case", "allow-leading-underscore"] },
    "whitespace": {
      "options": ["check-branch", "check-decl", "check-operator", "check-separator", "check-type", "check-typecast"]
    }
  }
}
